Lab9/timer.vcd
$date
	Sun Oct 29 18:03:57 2017
$end
$version
	Icarus Verilog
$end
$timescale
	1s
$end
$scope module timer_test $end
$var wire 32 ! cycle [31:0] $end
$var wire 1 " TimerInterrupt $end
$var wire 1 # TimerAddress $end
$var reg 1 $ MemRead $end
$var reg 1 % MemWrite $end
$var reg 32 & address [31:0] $end
$var reg 1 ' clock $end
$var reg 32 ( data [31:0] $end
$var reg 1 ) reset $end
$scope module t $end
$var wire 1 * Acknowledge $end
$var wire 1 $ MemRead $end
$var wire 1 % MemWrite $end
$var wire 1 # TimerAddress $end
$var wire 1 + TimerRead $end
$var wire 1 , TimerWrite $end
$var wire 32 - address [31:0] $end
$var wire 1 ' clock $end
$var wire 32 . data [31:0] $end
$var wire 1 ) reset $end
$var wire 1 / resetInterruptLine $end
$var wire 32 0 qInterruptCycle [31:0] $end
$var wire 1 1 qEqual $end
$var wire 32 2 qCycleCounter [31:0] $end
$var wire 1 3 equal2 $end
$var wire 1 4 equal1 $end
$var wire 32 5 dCycleCounter [31:0] $end
$var wire 32 6 cycle [31:0] $end
$var wire 1 " TimerInterrupt $end
$scope module aluCycle $end
$var wire 3 7 control [2:0] $end
$var wire 32 8 inB [31:0] $end
$var wire 32 9 out [31:0] $end
$var wire 1 : zero $end
$var wire 1 ; negative $end
$var wire 32 < inA [31:0] $end
$upscope $end
$scope module cycleCounter $end
$var wire 1 ' clk $end
$var wire 32 = d [31:0] $end
$var wire 1 > enable $end
$var wire 1 ) reset $end
$var reg 32 ? q [31:0] $end
$upscope $end
$scope module interruptCycle $end
$var wire 1 ' clk $end
$var wire 32 @ d [31:0] $end
$var wire 1 , enable $end
$var wire 1 ) reset $end
$var reg 32 A q [31:0] $end
$upscope $end
$scope module interruptLine $end
$var wire 1 ' clk $end
$var wire 32 B d [31:0] $end
$var wire 1 1 enable $end
$var wire 1 / reset $end
$var reg 32 C q [31:0] $end
$upscope $end
$scope module tsTimerRead $end
$var wire 1 + control $end
$var wire 32 D d [31:0] $end
$var wire 32 E o [31:0] $end
$upscope $end
$upscope $end
$upscope $end
$enddefinitions $end
#0
$dumpvars
bz E
bx D
bx C
b1 B
bx A
b0 @
bx ?
1>
bx =
bx <
x;
x:
bx 9
b10 8
b1 7
bz 6
bx 5
04
03
bx 2
x1
bx 0
1/
b0 .
b0 -
0,
0+
0*
1)
b0 (
0'
b0 &
0%
0$
0#
x"
bz !
$end
#5
1;
0:
b11111111111111111111111111111110 5
b11111111111111111111111111111110 9
b11111111111111111111111111111110 =
0"
11
b0 2
b0 <
b0 ?
b0 D
b0 0
b0 A
b0 C
1'
#10
b0 !
b0 6
b0 E
1#
1+
0/
0'
1$
14
b11111111111111110000000000011100 &
b11111111111111110000000000011100 -
0)
#15
b11111111111111111111111111111100 5
b11111111111111111111111111111100 9
b11111111111111111111111111111100 =
1"
b11111111111111111111111111111110 !
b11111111111111111111111111111110 6
b11111111111111111111111111111110 E
b1 C
01
b11111111111111111111111111111110 2
b11111111111111111111111111111110 <
b11111111111111111111111111111110 ?
b11111111111111111111111111111110 D
1'
#20
0'
#25
b11111111111111111111111111111010 5
b11111111111111111111111111111010 9
b11111111111111111111111111111010 =
b11111111111111111111111111111100 !
b11111111111111111111111111111100 6
b11111111111111111111111111111100 E
b11111111111111111111111111111100 2
b11111111111111111111111111111100 <
b11111111111111111111111111111100 ?
b11111111111111111111111111111100 D
1'
#30
0'
#35
b11111111111111111111111111111000 5
b11111111111111111111111111111000 9
b11111111111111111111111111111000 =
b11111111111111111111111111111010 !
b11111111111111111111111111111010 6
b11111111111111111111111111111010 E
b11111111111111111111111111111010 2
b11111111111111111111111111111010 <
b11111111111111111111111111111010 ?
b11111111111111111111111111111010 D
1'
#40
0'
#45
b11111111111111111111111111110110 5
b11111111111111111111111111110110 9
b11111111111111111111111111110110 =
b11111111111111111111111111111000 !
b11111111111111111111111111111000 6
b11111111111111111111111111111000 E
b11111111111111111111111111111000 2
b11111111111111111111111111111000 <
b11111111111111111111111111111000 ?
b11111111111111111111111111111000 D
1'
#50
bz !
bz 6
bz E
1,
0+
0'
1%
0$
b110 (
b110 .
b110 @
#55
b11111111111111111111111111110100 5
b11111111111111111111111111110100 9
b11111111111111111111111111110100 =
b110 0
b110 A
b11111111111111111111111111110110 2
b11111111111111111111111111110110 <
b11111111111111111111111111110110 ?
b11111111111111111111111111110110 D
1'
#60
b11111111111111111111111111110110 !
b11111111111111111111111111110110 6
b11111111111111111111111111110110 E
0,
1+
0'
0%
1$
#65
b11111111111111111111111111110010 5
b11111111111111111111111111110010 9
b11111111111111111111111111110010 =
b11111111111111111111111111110100 !
b11111111111111111111111111110100 6
b11111111111111111111111111110100 E
b11111111111111111111111111110100 2
b11111111111111111111111111110100 <
b11111111111111111111111111110100 ?
b11111111111111111111111111110100 D
1'
#70
0'
#75
b11111111111111111111111111110000 5
b11111111111111111111111111110000 9
b11111111111111111111111111110000 =
b11111111111111111111111111110010 !
b11111111111111111111111111110010 6
b11111111111111111111111111110010 E
b11111111111111111111111111110010 2
b11111111111111111111111111110010 <
b11111111111111111111111111110010 ?
b11111111111111111111111111110010 D
1'
#80
0'
#85
b11111111111111111111111111101110 5
b11111111111111111111111111101110 9
b11111111111111111111111111101110 =
b11111111111111111111111111110000 !
b11111111111111111111111111110000 6
b11111111111111111111111111110000 E
b11111111111111111111111111110000 2
b11111111111111111111111111110000 <
b11111111111111111111111111110000 ?
b11111111111111111111111111110000 D
1'
#90
0'
#95
b11111111111111111111111111101100 5
b11111111111111111111111111101100 9
b11111111111111111111111111101100 =
b11111111111111111111111111101110 !
b11111111111111111111111111101110 6
b11111111111111111111111111101110 E
b11111111111111111111111111101110 2
b11111111111111111111111111101110 <
b11111111111111111111111111101110 ?
b11111111111111111111111111101110 D
1'
#100
bz !
bz 6
bz E
1/
0+
1*
0'
1%
0$
04
13
b11111111111111110000000001101100 &
b11111111111111110000000001101100 -
#105
b11111111111111111111111111101010 5
b11111111111111111111111111101010 9
b11111111111111111111111111101010 =
0"
b11111111111111111111111111101100 2
b11111111111111111111111111101100 <
b11111111111111111111111111101100 ?
b11111111111111111111111111101100 D
b0 C
1'
